…
“In a single pipeline, filter for laureates who won their prize in the
US, but were born outside of the US, and then create a frequency table
(with the count() function) for their birth country (born_country) and
arrange the resulting data frame in descending order of number of
observations for each country. Which country is the most common?”

``` r
nobel_living_science %>%
  filter(country == "USA", born_country_us == "Other")%>%
  count(born_country) %>%
  arrange(desc(n))
```

    ## # A tibble: 27 × 2
    ##    born_country       n
    ##    <chr>          <int>
    ##  1 Canada             8
    ##  2 United Kingdom     8
    ##  3 Poland             6
    ##  4 France             4
    ##  5 Hungary            4
    ##  6 Italy              4
    ##  7 Russia             4
    ##  8 Austria            3
    ##  9 Germany            3
    ## 10 South Africa       3
    ## # ℹ 17 more rows
…
